
{
"jsonarray":[

{
  
  "_id": "5c9fa403d0cc8b2ea57958uy",
  "active": true,
  "applyUrl": "http://ro.indeed.com/viewjob?jk=24c64bf1af848028&qd=K20KY61gBRCdT8koy04KSqL3cw91y4_mBwDi6d9d0uhixbygBp7MczEmepVT1oStBIyXlPeTSUjaaxFvpr_m4mrTh2q3Omd-jjmkUKmd2XLqAhSzImzghGm1GoZ7nsAp&indpubnum=381359777806421&atk=1d7mtcs5gb8f2800",
  "city": "București",
  "company": "Company 1",
  "date": "Thu Mar 20 2019 07:39:06 GMT+0000 (UTC)",
  "dist": {
    "calculated": 127.2061796982967
  },
  "distance_driving": {
    "text": "0.1 km",
    "value": 138
  },
  "distance_transit": {
    "text": "0.1 km",
    "value": 138
  },
  "distance_walking": {
    "text": "0.1 km",
    "value": 138
  },
  "duration_driving": {
    "text": "1 min",
    "value": 41
  },
  "duration_transit": {
    "text": "2 mins",
    "value": 101
  },
  "duration_walking": {
    "text": "2 mins",
    "value": 101
  },
  "expired": false,
  "external_id": "24c64bf1af848028",
  "external_provider": "indeed",
  "formatedDescription": "<p></p>Descriere Job Mensch und Maschine is extending its sales force and is looking for Sales Specialists in CAD industry to join our Romanian team!<br/><br/>In this position you have to:<br/><br/>Develop sales strategy (the position requires planning, organizing, ability for all sales activities in order to achieve set goals and targets);<br/>Analyze and understand business market;<br/>Identify new opportunities for business development;<br/>Initiate, develop and maintain business relations with potential customers;<br/>Manage and develop key accounts portfolio;<br/>Manage budgets and work to achieve the financial targets;<br/>Follow a certain sales methodology agreed by the Company;<br/>Participate in marketing activities, when necessary;<br/>Interact with the management on all business issues.<br/><br/>Cerinte As successful candidate, you will meet the following qualifications and requirements:<br/><br/>Qualifications :<br/><br/>University degree in Mechanical Engineering, Machinery Construction, Electrical Engineering is mandatory;<br/>Minimum one year related industry experience (mechanical engineering, electrical engineering or similar), ideally in a sales position;<br/>Good knowledge and experience in using at least one of the following Autodesk software: Autodesk Inventor, AutoCAD Mechanical and AutoCAD would be an advantage;<br/>Technical strong knowledge (should have enough competence to sound credible in various engineering areas);<br/><br/>Requirements:<br/><br/>Significant experience on sales achieved to date;<br/>Proven knowledge of sales management process (at least one year work experience in sales);<br/>Local software market knowledge / experience would be an advantage (Autodesk software market and products);<br/>Highly customer / result-oriented person;<br/>Ability to handle multiple projects and find various solutions;<br/>Good communicator at all levels with excellent presentation skills;<br/>Fast thinking, good decision maker, ability to handle pressure;<br/>Availability to travel (in the country and abroad);<br/>Advanced skills in written and spoken English are essential;<br/>PC proficiency;<br/>Driving license.<br/><br/>Oferta For the suitable candidate we offer:<br/><br/>Young and dynamic environment, high recognition of professional achievements.<br/>International exposure.<br/>Excellent opportunity to develop your sales career in a multinational company<br/>Bonuses depending on the sales targets achievement;<br/>Other benefits.<br/><br/>Observatii If you are interested in this position and you meet the above mentioned requirements, please submit your detailed CV / Resume to: nextlevel@manandmachine.ro.<br/><br/>Descriere Companie Din 1995, Expertul MaxCAD stă în umbra celor mai îndrăzneţe şi mai complexe proiecte.<br/><br/>Începuturile activităţii MaxCAD sunt marcate de proiectele de consultanţă şi instruire desfăşurate împreună cu instituţii recunoscute în domeniul proiectării şi cadastrului. Această activitate a fost prolifică pentru echipa de atunci a MaxCAD. Această etapă a existenţei companiei a adăugat valoare serviciilor oferite, impunând echipei un stil de lucru alert şi creativ, orientat către continua adaptare la solicitările clienţilor.<br/><br/>În prezent, MaxCAD este Reseller Autorizat Autodesk si Centru de Instruire Autorizat Autodesk care comercializează toate pachetele software ale producătorului american pentru proiectare asistată de calculator în domeniul mecanicii, arhitecturii, construcţiilor, infrastructurii, al sistemelor informaţionale geografice şi multimedia. Certificată ISO 9001:2000 de către Germanischer Lloyd Europa de Sud-Est, compania MaxCAD oferă clienţilor săi orice program marca Autodesk – plus consultanţă, training şi suport tehnic pentru acesta.<br/><br/>Sursa: http://www.manandmachine.ro",
  "formattedLocation": "București",
  "id": 0,
  "indeedApply": false,
  "insensitive_keywords": [
    "sales manager",
    "manager vanzari",
    "salesforce",
    "pricing manager"
  ],
  "jobtitle": "Sales Specialist CAD Industry",
  "keywords": [
    "Sales Manager",
    "Manager vanzari",
    "Salesforce",
    "Pricing Manager"
  ],
  "language": "en",
  "location": {
    "coordinates": [
      26.1339999,
      44.458181
    ],
    "type": "Point"
  },
  "normalized_company_name": "maxcad"
},

{
  
  "_id": "5c9fa403d0cc8b2ea57958fa",
  "active": true,
  "applyUrl": "http://ro.indeed.com/viewjob?jk=24c64bf1af848028&qd=K20KY61gBRCdT8koy04KSqL3cw91y4_mBwDi6d9d0uhixbygBp7MczEmepVT1oStBIyXlPeTSUjaaxFvpr_m4mrTh2q3Omd-jjmkUKmd2XLqAhSzImzghGm1GoZ7nsAp&indpubnum=381359777806421&atk=1d7mtcs5gb8f2800",
  "city": "București",
  "company": "Company 2",
  "date": "Thu Aug 3 2019 07:39:06 GMT+0000 (UTC)",
  "dist": {
    "calculated": 127.2061796982967
  },
  "distance_driving": {
    "text": "0.1 km",
    "value": 138
  },
  "distance_transit": {
    "text": "0.1 km",
    "value": 138
  },
  "distance_walking": {
    "text": "0.1 km",
    "value": 138
  },
  "duration_driving": {
    "text": "1 min",
    "value": 41
  },
  "duration_transit": {
    "text": "2 mins",
    "value": 101
  },
  "duration_walking": {
    "text": "2 mins",
    "value": 101
  },
  "expired": false,
  "external_id": "24c64bf1af848028",
  "external_provider": "indeed",
  "formatedDescription": "<p></p>Descriere Job Mensch und Maschine is extending its sales force and is looking for Sales Specialists in CAD industry to join our Romanian team!<br/><br/>In this position you have to:<br/><br/>Develop sales strategy (the position requires planning, organizing, ability for all sales activities in order to achieve set goals and targets);<br/>Analyze and understand business market;<br/>Identify new opportunities for business development;<br/>Initiate, develop and maintain business relations with potential customers;<br/>Manage and develop key accounts portfolio;<br/>Manage budgets and work to achieve the financial targets;<br/>Follow a certain sales methodology agreed by the Company;<br/>Participate in marketing activities, when necessary;<br/>Interact with the management on all business issues.<br/><br/>Cerinte As successful candidate, you will meet the following qualifications and requirements:<br/><br/>Qualifications :<br/><br/>University degree in Mechanical Engineering, Machinery Construction, Electrical Engineering is mandatory;<br/>Minimum one year related industry experience (mechanical engineering, electrical engineering or similar), ideally in a sales position;<br/>Good knowledge and experience in using at least one of the following Autodesk software: Autodesk Inventor, AutoCAD Mechanical and AutoCAD would be an advantage;<br/>Technical strong knowledge (should have enough competence to sound credible in various engineering areas);<br/><br/>Requirements:<br/><br/>Significant experience on sales achieved to date;<br/>Proven knowledge of sales management process (at least one year work experience in sales);<br/>Local software market knowledge / experience would be an advantage (Autodesk software market and products);<br/>Highly customer / result-oriented person;<br/>Ability to handle multiple projects and find various solutions;<br/>Good communicator at all levels with excellent presentation skills;<br/>Fast thinking, good decision maker, ability to handle pressure;<br/>Availability to travel (in the country and abroad);<br/>Advanced skills in written and spoken English are essential;<br/>PC proficiency;<br/>Driving license.<br/><br/>Oferta For the suitable candidate we offer:<br/><br/>Young and dynamic environment, high recognition of professional achievements.<br/>International exposure.<br/>Excellent opportunity to develop your sales career in a multinational company<br/>Bonuses depending on the sales targets achievement;<br/>Other benefits.<br/><br/>Observatii If you are interested in this position and you meet the above mentioned requirements, please submit your detailed CV / Resume to: nextlevel@manandmachine.ro.<br/><br/>Descriere Companie Din 1995, Expertul MaxCAD stă în umbra celor mai îndrăzneţe şi mai complexe proiecte.<br/><br/>Începuturile activităţii MaxCAD sunt marcate de proiectele de consultanţă şi instruire desfăşurate împreună cu instituţii recunoscute în domeniul proiectării şi cadastrului. Această activitate a fost prolifică pentru echipa de atunci a MaxCAD. Această etapă a existenţei companiei a adăugat valoare serviciilor oferite, impunând echipei un stil de lucru alert şi creativ, orientat către continua adaptare la solicitările clienţilor.<br/><br/>În prezent, MaxCAD este Reseller Autorizat Autodesk si Centru de Instruire Autorizat Autodesk care comercializează toate pachetele software ale producătorului american pentru proiectare asistată de calculator în domeniul mecanicii, arhitecturii, construcţiilor, infrastructurii, al sistemelor informaţionale geografice şi multimedia. Certificată ISO 9001:2000 de către Germanischer Lloyd Europa de Sud-Est, compania MaxCAD oferă clienţilor săi orice program marca Autodesk – plus consultanţă, training şi suport tehnic pentru acesta.<br/><br/>Sursa: http://www.manandmachine.ro",
  "formattedLocation": "București",
  "id": 0,
  "indeedApply": false,
  "insensitive_keywords": [
    "sales manager",
    "manager vanzari",
    "salesforce",
    "pricing manager"
  ],
  "jobtitle": "Job 2",
  "keywords": [
    "Sales Manager",
    "Manager vanzari",
    "Salesforce",
    "Pricing Manager"
  ],
  "language": "en",
  "location": {
    "coordinates": [
      26.1239999,
      44.468181
    ],
    "type": "Point"
  },
  "normalized_company_name": "maxcad"
},

{
  
  "_id": "5c9fa403d0cc8b2ea57958fa",
  "active": true,
  "applyUrl": "http://ro.indeed.com/viewjob?jk=24c64bf1af848028&qd=K20KY61gBRCdT8koy04KSqL3cw91y4_mBwDi6d9d0uhixbygBp7MczEmepVT1oStBIyXlPeTSUjaaxFvpr_m4mrTh2q3Omd-jjmkUKmd2XLqAhSzImzghGm1GoZ7nsAp&indpubnum=381359777806421&atk=1d7mtcs5gb8f2800",
  "city": "București",
  "company": "Company 3",
  "date": "Thu Jul 24 2019 07:39:06 GMT+0000 (UTC)",
  "dist": {
    "calculated": 127.2061796982967
  },
  "distance_driving": {
    "text": "0.1 km",
    "value": 138
  },
  "distance_transit": {
    "text": "0.1 km",
    "value": 138
  },
  "distance_walking": {
    "text": "0.1 km",
    "value": 138
  },
  "duration_driving": {
    "text": "1 min",
    "value": 41
  },
  "duration_transit": {
    "text": "2 mins",
    "value": 101
  },
  "duration_walking": {
    "text": "2 mins",
    "value": 101
  },
  "expired": false,
  "external_id": "24c64bf1af848028",
  "external_provider": "indeed",
  "formatedDescription": "<p></p>Descriere Job Mensch und Maschine is extending its sales force and is looking for Sales Specialists in CAD industry to join our Romanian team!<br/><br/>In this position you have to:<br/><br/>Develop sales strategy (the position requires planning, organizing, ability for all sales activities in order to achieve set goals and targets);<br/>Analyze and understand business market;<br/>Identify new opportunities for business development;<br/>Initiate, develop and maintain business relations with potential customers;<br/>Manage and develop key accounts portfolio;<br/>Manage budgets and work to achieve the financial targets;<br/>Follow a certain sales methodology agreed by the Company;<br/>Participate in marketing activities, when necessary;<br/>Interact with the management on all business issues.<br/><br/>Cerinte As successful candidate, you will meet the following qualifications and requirements:<br/><br/>Qualifications :<br/><br/>University degree in Mechanical Engineering, Machinery Construction, Electrical Engineering is mandatory;<br/>Minimum one year related industry experience (mechanical engineering, electrical engineering or similar), ideally in a sales position;<br/>Good knowledge and experience in using at least one of the following Autodesk software: Autodesk Inventor, AutoCAD Mechanical and AutoCAD would be an advantage;<br/>Technical strong knowledge (should have enough competence to sound credible in various engineering areas);<br/><br/>Requirements:<br/><br/>Significant experience on sales achieved to date;<br/>Proven knowledge of sales management process (at least one year work experience in sales);<br/>Local software market knowledge / experience would be an advantage (Autodesk software market and products);<br/>Highly customer / result-oriented person;<br/>Ability to handle multiple projects and find various solutions;<br/>Good communicator at all levels with excellent presentation skills;<br/>Fast thinking, good decision maker, ability to handle pressure;<br/>Availability to travel (in the country and abroad);<br/>Advanced skills in written and spoken English are essential;<br/>PC proficiency;<br/>Driving license.<br/><br/>Oferta For the suitable candidate we offer:<br/><br/>Young and dynamic environment, high recognition of professional achievements.<br/>International exposure.<br/>Excellent opportunity to develop your sales career in a multinational company<br/>Bonuses depending on the sales targets achievement;<br/>Other benefits.<br/><br/>Observatii If you are interested in this position and you meet the above mentioned requirements, please submit your detailed CV / Resume to: nextlevel@manandmachine.ro.<br/><br/>Descriere Companie Din 1995, Expertul MaxCAD stă în umbra celor mai îndrăzneţe şi mai complexe proiecte.<br/><br/>Începuturile activităţii MaxCAD sunt marcate de proiectele de consultanţă şi instruire desfăşurate împreună cu instituţii recunoscute în domeniul proiectării şi cadastrului. Această activitate a fost prolifică pentru echipa de atunci a MaxCAD. Această etapă a existenţei companiei a adăugat valoare serviciilor oferite, impunând echipei un stil de lucru alert şi creativ, orientat către continua adaptare la solicitările clienţilor.<br/><br/>În prezent, MaxCAD este Reseller Autorizat Autodesk si Centru de Instruire Autorizat Autodesk care comercializează toate pachetele software ale producătorului american pentru proiectare asistată de calculator în domeniul mecanicii, arhitecturii, construcţiilor, infrastructurii, al sistemelor informaţionale geografice şi multimedia. Certificată ISO 9001:2000 de către Germanischer Lloyd Europa de Sud-Est, compania MaxCAD oferă clienţilor săi orice program marca Autodesk – plus consultanţă, training şi suport tehnic pentru acesta.<br/><br/>Sursa: http://www.manandmachine.ro",
  "formattedLocation": "București",
  "id": 0,
  "indeedApply": false,
  "insensitive_keywords": [
    "sales manager",
    "manager vanzari",
    "salesforce",
    "pricing manager"
  ],
  "jobtitle": "Job 3",
  "keywords": [
    "Sales Manager",
    "Manager vanzari",
    "Salesforce",
    "Pricing Manager"
  ],
  "language": "en",
  "location": {
    "coordinates": [
      26.1139999,
      44.410181
    ],
    "type": "Point"
  },
  "normalized_company_name": "maxcad"
}
]
}